<?xml version="1.0" encoding="utf-8"?>
<!-- Generator: Adobe Illustrator 16.0.0, SVG Export Plug-In . SVG Version: 6.00 Build 0)  -->
<!DOCTYPE svg PUBLIC "-//W3C//DTD SVG 1.1//EN" "http://www.w3.org/Graphics/SVG/1.1/DTD/svg11.dtd">
<svg version="1.1" id="Layer_1" xmlns="http://www.w3.org/2000/svg" xmlns:xlink="http://www.w3.org/1999/xlink" x="0px" y="0px"
	 width="386px" height="378px" viewBox="290.5 36.5 386 378" enable-background="new 290.5 36.5 386 378" xml:space="preserve">
<g>
	<path fill="#008fba" d="M644.134,235.76c8.906-11.513,18.112-23.426,15.944-38.608c-2.003-14.031-14.654-20.814-25.822-26.799
		c-7.988-4.283-15.533-8.329-18.938-14.224c-4.202-7.275-4.592-17.091-5.009-27.485c-0.582-14.546-1.187-29.586-12.603-39.823
		c-4.892-4.381-10.989-6.509-18.663-6.509c-6.021,0-12.293,1.308-18.354,2.576c-9.117,1.904-17.902,3.364-23.637,1.277
		c-7.898-2.876-14.506-10.143-21.509-17.835c-9.802-10.766-19.927-21.903-35.253-22.405l-0.824-0.013
		c-13.704,0-22.391,11.048-30.065,20.792c-5.6,7.124-10.896,13.852-17.288,16.177c-3.141,1.143-6.832,1.703-11.28,1.703
		c-0.005,0-0.01,0-0.01,0c-5.264,0-10.792-0.748-16.647-1.541c-5.909-0.802-12.02-1.626-17.938-1.626
		c-9.686,0-17.36,2.334-23.466,7.128c-11.155,8.749-10.703,23.099-10.304,35.764c0.282,9.054,0.556,17.611-2.845,23.502
		c-4.202,7.275-12.508,12.526-21.298,18.082c-12.307,7.777-25.03,15.819-28.184,30.827c-2.917,13.879,6.653,24.582,15.102,34.03
		c6.043,6.756,11.747,13.135,12.929,19.837c1.456,8.27-1.532,17.633-4.695,27.539c-4.426,13.865-9.004,28.206-1.774,41.727
		c6.684,12.504,20.899,14.551,33.439,16.356c8.969,1.29,17.44,2.514,22.651,6.886c6.438,5.398,10.165,14.488,14.112,24.116
		c5.523,13.471,11.231,27.395,25.464,33.111c2.917,1.174,5.995,1.77,9.148,1.77c9.682-0.004,18.476-5.456,26.979-10.729
		c7.701-4.775,14.981-9.287,21.777-9.287c8.4,0,17.101,4.569,26.312,9.408c9.869,5.179,20.07,10.541,31.006,10.541
		c3.36,0,6.652-0.52,9.784-1.545c13.472-4.413,17.96-18.055,21.916-30.093c2.832-8.605,5.506-16.737,10.721-21.114
		c6.434-5.398,16.034-7.49,26.199-9.708c14.224-3.096,28.928-6.304,37.031-19.326c7.482-12.038,2.15-25.37-2.553-37.131
		c-3.369-8.418-6.546-16.365-5.363-23.063C631.765,251.763,637.772,243.99,644.134,235.76z M623.194,288.091
		c4.673,11.688,7.249,19.206,3.615,25.048c-5.094,8.198-16.45,10.676-28.471,13.297c-11.308,2.464-23.005,5.013-31.978,12.544
		c-8.145,6.832-11.555,17.194-14.843,27.211c-3.929,11.957-6.792,19.372-13.328,21.514c-8.799,2.876-19.277-2.299-30.36-8.123
		c-10.246-5.38-20.842-10.944-32.561-10.944c-10.632,0-19.896,5.748-28.856,11.303c-9.014,5.592-17.306,10.609-24.039,7.917
		c-8.96-3.603-13.368-14.354-18.037-25.738c-4.39-10.712-8.933-21.781-17.911-29.316c-8.14-6.828-18.937-8.387-29.371-9.888
		c-12.458-1.797-20.258-3.324-23.506-9.395c-4.552-8.512-1.017-19.587,2.728-31.307c3.521-11.025,7.159-22.427,5.125-33.963
		c-1.846-10.47-9.117-18.596-16.146-26.458c-8.391-9.386-13.382-15.568-11.966-22.306c1.985-9.444,11.81-15.653,22.212-22.229
		c9.784-6.183,19.9-12.58,25.76-22.723c5.317-9.207,4.973-20.106,4.641-30.648c-0.394-12.58-0.247-20.522,5.17-24.77
		c3.75-2.943,8.427-4.256,15.169-4.256c5.013,0,10.42,0.73,16.141,1.505c6.039,0.815,12.28,1.658,18.449,1.662h0.004
		c6.044,0,11.24-0.824,15.886-2.518c9.986-3.638,16.729-12.208,23.252-20.492c6.612-8.4,12.315-15.658,19.873-15.658
		c0.005,0,0.005,0,0.009,0c9.646,0.314,17.468,8.916,25.756,18.014c7.786,8.562,15.837,17.414,26.844,21.419
		c3.544,1.29,7.401,1.917,11.787,1.917c6.434,0,12.925-1.357,19.201-2.666c5.645-1.183,10.972-2.298,15.604-2.298
		c4.328,0,7.316,0.954,9.695,3.082c7.186,6.442,7.651,18.055,8.145,30.348c0.466,11.563,0.94,23.52,6.801,33.667
		c5.317,9.21,14.927,14.363,24.224,19.344c11.092,5.945,17.897,10.049,18.869,16.858c1.366,9.561-5.748,18.758-13.274,28.488
		c-7.078,9.157-14.394,18.624-16.433,30.16C615.225,268.173,619.274,278.298,623.194,288.091z"/>
	
		<rect x="393.234" y="224.066" transform="matrix(-0.6246 0.781 -0.781 -0.6246 962.895 -1.3133)" fill="#008fba" width="177.058" height="13.436"/>
	<path fill="#008fba" d="M465.668,192.972c0-16.401-13.346-29.748-29.747-29.748s-29.747,13.346-29.747,29.748
		c0,16.406,13.346,29.751,29.747,29.751S465.668,209.377,465.668,192.972z M419.614,192.972c0-8.992,7.315-16.308,16.307-16.308
		c8.992,0,16.308,7.316,16.308,16.308c0,8.996-7.315,16.312-16.308,16.312C426.93,209.283,419.614,201.967,419.614,192.972z"/>
	<path fill="#008fba" d="M525.342,242.69c-16.405,0-29.751,13.346-29.751,29.748c0,16.401,13.346,29.748,29.751,29.748
		c16.397,0,29.747-13.347,29.747-29.748C555.089,256.037,541.739,242.69,525.342,242.69z M525.342,288.74
		c-8.996,0-16.312-7.315-16.312-16.307c0-8.991,7.315-16.307,16.312-16.307c8.991,0,16.308,7.316,16.308,16.307
		C541.649,281.425,534.333,288.74,525.342,288.74z"/>
</g>
<text transform="matrix(1 0 0 1 256 515.1992)" fill="#008fba" font-family="'HelveticaNeue-Bold'" font-size="22.4">Created by Nikita Kozin</text>
<text transform="matrix(1 0 0 1 256 537.6016)" fill="#008fba" font-family="'HelveticaNeue-Bold'" font-size="22.4">from the Noun Project</text>
</svg>
