<?xml version="1.0" encoding="utf-8"?>
<!-- Generator: Adobe Illustrator 16.0.0, SVG Export Plug-In . SVG Version: 6.00 Build 0)  -->
<!DOCTYPE svg PUBLIC "-//W3C//DTD SVG 1.1//EN" "http://www.w3.org/Graphics/SVG/1.1/DTD/svg11.dtd">
<svg version="1.1" id="Layer_1" xmlns="http://www.w3.org/2000/svg" xmlns:xlink="http://www.w3.org/1999/xlink" x="0px" y="0px"
	 width="150px" height="150px" viewBox="-50 -50 150 150" enable-background="new -50 -50 150 150" xml:space="preserve">
<g>
	<polyline fill="none" stroke="#008fba" stroke-width="7.89" stroke-linecap="round" stroke-miterlimit="10" points="11.85,19.74 
		-35.49,19.74 -35.49,-3.93 85.49,-3.93 85.49,19.74 38.15,19.74 	"/>
	
		<rect x="11.85" y="-3.93" fill="none" stroke="#008fba" stroke-width="7.89" stroke-linecap="round" stroke-miterlimit="10" width="26.3" height="89.42"/>
	<rect x="-40.75" y="-40.75" fill="none" width="131.5" height="131.5"/>
	<path fill="none" stroke="#008fba" stroke-width="7.89" stroke-linecap="round" stroke-miterlimit="10" d="M11.85,19.74h-42.08
		v65.75H80.23V19.74H38.15"/>
	
		<path fill="none" stroke="#008fba" stroke-width="7.89" stroke-linecap="round" stroke-linejoin="round" stroke-miterlimit="10" d="
		M25-6.56c0,0-9.421,0-21.04,0s-23.67-6.788-23.67-18.41c0-4.808,2.309-10.52,11.358-10.52C9.84-35.49,10.174-6.56,25-6.56z"/>
	
		<path fill="none" stroke="#008fba" stroke-width="7.89" stroke-linecap="round" stroke-linejoin="round" stroke-miterlimit="10" d="
		M25-6.56c0,0,9.421,0,21.04,0s23.67-6.788,23.67-18.41c0-4.808-2.309-10.52-11.357-10.52C40.158-35.49,39.824-6.56,25-6.56z"/>
</g>
</svg>
