<?xml version="1.0" encoding="utf-8"?>
<!-- Generator: Adobe Illustrator 16.0.0, SVG Export Plug-In . SVG Version: 6.00 Build 0)  -->
<!DOCTYPE svg PUBLIC "-//W3C//DTD SVG 1.1//EN" "http://www.w3.org/Graphics/SVG/1.1/DTD/svg11.dtd">
<svg version="1.1" id="Layer_1" xmlns="http://www.w3.org/2000/svg" xmlns:xlink="http://www.w3.org/1999/xlink" x="0px" y="0px"
	 width="300px" height="300px" viewBox="0 0 300 300" enable-background="new 0 0 300 300" xml:space="preserve">
<g>
	<circle fill="none" stroke="#008fba" stroke-width="9.5647" stroke-miterlimit="10" cx="110.799" cy="110.333" r="99.575"/>
	<path fill="#008fba" d="M278.788,289.748c-4.271,4.271-10.091,5.369-13.001,2.459l-79.068-79.07c-2.91-2.91-1.812-8.729,2.459-13
		l8.693-8.693c4.271-4.271,10.091-5.371,13.002-2.459l79.068,79.067c2.91,2.912,1.812,8.731-2.459,13.003L278.788,289.748z"/>
	
		<line fill="none" stroke="#008fba" stroke-width="12.2975" stroke-miterlimit="10" x1="179.807" y1="182.116" x2="193.5" y2="195.812"/>
	<path fill="none" stroke="#008fba" stroke-width="5" stroke-miterlimit="10" d="M190.309,170.282
		c-16.396-24.702-54.276-40.991-86.147-40.991c-31.869,0-65.371,2.194-81.766,26.896"/>
	<g>
		<path fill="none" stroke="#008fba" stroke-width="5" stroke-linecap="round" stroke-linejoin="round" stroke-miterlimit="10" d="
			M127.449,131.929c0,0,3.61-44.21-29.104-63.662c0,0,15.336,42.441-6.037,58.357"/>
		<path fill="none" stroke="#008fba" stroke-width="5" stroke-linecap="round" stroke-linejoin="round" stroke-miterlimit="10" d="
			M96.778,71.041c0,0-32.382-15.91-44.323,35.371c0,0,9.498-18.005,24.637-12.993C77.092,93.419,107.502,91.376,96.778,71.041z"/>
		<path fill="none" stroke="#008fba" stroke-width="5" stroke-linecap="round" stroke-linejoin="round" stroke-miterlimit="10" d="
			M95.574,68.444c0,0,29.18-21.222-10.609-55.706c0,0,11.494,16.799,0,27.853C84.965,40.592,72.586,68.444,95.574,68.444z"/>
		<path fill="none" stroke="#008fba" stroke-width="5" stroke-linecap="round" stroke-linejoin="round" stroke-miterlimit="10" d="
			M104.901,71.511c0,0,48.427,16.049,24.004-35.674c0,0-4.629,12.928-13.672,16.449C115.233,52.286,97.666,65.496,104.901,71.511z"
			/>
	</g>
</g>
</svg>
