<?xml version="1.0" encoding="utf-8"?>
<!-- Generator: Adobe Illustrator 16.0.0, SVG Export Plug-In . SVG Version: 6.00 Build 0)  -->
<!DOCTYPE svg PUBLIC "-//W3C//DTD SVG 1.1//EN" "http://www.w3.org/Graphics/SVG/1.1/DTD/svg11.dtd">
<svg version="1.1" id="Layer_1" xmlns="http://www.w3.org/2000/svg" xmlns:xlink="http://www.w3.org/1999/xlink" x="0px" y="0px"
	 width="343px" height="98px" viewBox="0 0 343 98" enable-background="new 0 0 343 98" xml:space="preserve">
<g>
	<path fill="#595959" d="M147.435,24.597v-0.972l-1.387,0.342c-0.288-1.152-0.666-2.269-1.098-3.349l1.512-0.504
		c0.36,0.9,0.685,1.909,0.973,3.043v-4.717h6.104c-0.18-0.378-0.378-0.72-0.594-1.044l1.945-0.324
		c0.198,0.396,0.396,0.864,0.576,1.369h5.582v1.584h-11.866v4.573c-0.072,3.853-0.882,6.932-2.431,9.272l-1.422-1.26
		c0.972-1.405,1.621-3.223,1.909-5.42c-0.612,0.522-1.278,1.008-1.962,1.458l-0.541-1.818c0.973-0.522,1.873-1.099,2.683-1.747
		C147.417,24.903,147.435,24.741,147.435,24.597z M159.426,20.708v6.428c0,2.017,0.036,3.312,0.126,3.889
		c0.072,0.559,0.162,0.847,0.288,0.847c0.126,0,0.234-0.594,0.324-1.747l1.225,0.576c-0.18,1.224-0.396,2.016-0.612,2.413
		c-0.234,0.396-0.486,0.594-0.774,0.594c-0.756,0-1.296-0.45-1.638-1.332c-0.36-0.864-0.522-2.611-0.522-5.239v-4.88h-6.374v5.204
		c-0.036,2.557-0.63,4.717-1.765,6.464l-1.351-1.099c1.008-1.422,1.531-3.205,1.566-5.366v-6.752H159.426z M153.827,25.245v-0.9
		h-1.818v-1.351h5.204v1.351h-1.729v0.9h1.71v4.645h-1.729v1.567c0.252-0.036,0.486-0.09,0.702-0.126
		c-0.09-0.252-0.18-0.486-0.252-0.702l1.224-0.396c0.342,0.846,0.648,1.818,0.918,2.917l-1.296,0.324
		c-0.072-0.288-0.126-0.559-0.198-0.811c-1.044,0.252-2.646,0.468-4.807,0.685l-0.234-1.531c0.828-0.036,1.584-0.09,2.287-0.162
		V29.89h-1.71v-4.645H153.827z M154.133,26.542h-0.792v2.052h0.792V26.542z M155.934,26.542h-0.756v2.052h0.756V26.542z"/>
	<path fill="#595959" d="M183.291,23.246V21.05h-1.908v-1.657h1.908v-2.214h1.782v2.214h1.837v1.657h-1.837v2.196h2.089v1.693
		h-1.639v2.017h1.549v1.584h-1.549v2.827c0.09,0.036,0.198,0.072,0.307,0.108c1.008,0.324,3.349,0.486,7.021,0.486
		c1.998,0,3.475-0.036,4.447-0.09l-0.307,1.836h-3.727c-4.482,0-7.273-0.252-8.391-0.756c-0.828-0.396-1.566-1.008-2.215-1.873
		c-0.197,1.026-0.449,1.999-0.738,2.899l-1.35-1.206c0.611-2.089,0.973-4.412,1.044-6.933l1.548,0.18
		c-0.035,1.044-0.09,2.053-0.197,3.007c0.27,0.432,0.559,0.811,0.864,1.134v-5.221h-2.683v-1.693H183.291z M186.766,19.303v-1.621
		h6.122v1.278h4.231v1.296c-0.09,2.377-0.486,4.483-1.17,6.32c0.539,1.296,1.025,2.611,1.477,3.961l-1.405,0.63
		c-0.323-0.937-0.63-1.819-0.954-2.665c-0.576,1.044-1.26,1.999-2.07,2.845l-0.793-0.936v1.17h-1.656v-2.017
		c-1.188,0.414-2.431,0.774-3.727,1.062l-0.414-1.656c0.432-0.072,0.846-0.144,1.242-0.234v-9.435H186.766z M189.269,19.303v1.944
		h1.278v-1.944H189.269z M190.547,24.579V22.76h-1.278v1.818H190.547z M190.547,27.91v-1.818h-1.278v2.232
		C189.701,28.198,190.115,28.054,190.547,27.91z M194.238,26.397c-0.576-1.405-1.188-2.701-1.818-3.889l1.404-0.468
		c0.396,0.738,0.756,1.494,1.116,2.269c0.288-1.17,0.485-2.413,0.576-3.709h-2.862v-1.296h-0.451v10.479
		C193.031,28.792,193.716,27.658,194.238,26.397z"/>
	<path fill="#595959" d="M217.383,22.76c1.26-0.198,3.133-2.089,5.581-5.672l1.944,0.684c-1.387,1.909-2.809,3.565-4.285,4.934
		c2.917-0.144,5.762-0.342,8.535-0.594c-0.541-0.792-1.1-1.548-1.656-2.25l1.709-0.81c1.441,1.8,2.791,3.781,4.088,5.959l-1.836,0.9
		c-0.396-0.738-0.811-1.44-1.225-2.125c-3.746,0.342-7.922,0.594-12.514,0.756L217.383,22.76z M231.283,33.869h-1.91v-0.684h-8.605
		v0.684h-1.908v-7.724h12.424V33.869z M229.373,31.385v-3.439h-8.605v3.439H229.373z"/>
	<path fill="#595959" d="M256.75,24.219l-1.225,1.206c-0.648-0.828-1.566-1.71-2.756-2.665l1.207-1.17
		C255.057,22.454,255.992,23.336,256.75,24.219z M257.02,27.244c-0.756,2.269-1.584,4.393-2.521,6.392l-1.691-0.738
		c1.008-2.053,1.891-4.16,2.646-6.302L257.02,27.244z M256.82,19.897l-1.223,1.224c-0.596-0.81-1.459-1.674-2.576-2.611l1.207-1.152
		C255.236,18.205,256.102,19.051,256.82,19.897z M258.045,23.499c-0.053,0.756-0.162,1.476-0.324,2.179l-1.08-0.378
		c0.199-0.648,0.342-1.332,0.434-2.053L258.045,23.499z M261.088,22.832l-1.08,0.271c-0.035-0.18-0.09-0.342-0.125-0.486
		c-0.865,0.144-1.818,0.288-2.881,0.432l-0.234-1.044c0.324-0.108,0.828-0.63,1.494-1.566c-0.379,0.036-0.756,0.09-1.152,0.126
		l-0.252-0.972c0.504-0.54,0.955-1.333,1.332-2.377l1.189,0.36c-0.361,0.792-0.758,1.422-1.189,1.926l0.738-0.072
		c0.18-0.324,0.379-0.63,0.576-0.954l1.189,0.432c-0.506,0.756-0.938,1.386-1.297,1.891l0.936-0.288
		C260.602,21.176,260.854,21.95,261.088,22.832z M259.721,30.034h8.857c0,1.621-0.143,2.665-0.395,3.133
		c-0.254,0.433-0.865,0.666-1.801,0.685c-0.9,0-1.766-0.019-2.594-0.054l-0.396-1.477c0.973,0.036,1.873,0.072,2.701,0.072
		c0.361,0,0.576-0.09,0.648-0.234c0.072-0.162,0.107-0.396,0.107-0.685h-9.002l0.504-3.529h7.922v-0.756h-8.102v-1.333h9.777v3.439
		h-8.104L259.721,30.034z M259.541,25.389l-1.1,0.144c-0.018-0.9-0.053-1.584-0.09-2.071l0.918-0.108
		C259.396,23.858,259.486,24.525,259.541,25.389z M258.621,21.77l0.955-0.162c-0.09-0.27-0.18-0.504-0.252-0.72
		C259.055,21.248,258.82,21.536,258.621,21.77z M261.053,24.939l-0.973,0.36c-0.125-0.63-0.27-1.242-0.432-1.854l0.9-0.252
		C260.764,23.822,260.926,24.398,261.053,24.939z M262.115,18.187c-0.109-0.306-0.217-0.576-0.324-0.829l1.549-0.252
		c0.107,0.324,0.215,0.684,0.305,1.081h1.441v1.188h-4.34v-1.188H262.115z M264.689,22.634v2.737h-3.529v-2.737H264.689z
		 M264.545,19.825v0.99h-3.24v-0.99H264.545z M264.527,21.212v0.99h-3.223v-0.99H264.527z M263.482,23.534h-1.115v0.864h1.115
		V23.534z M269.316,22.742l-1.062,0.27c-0.035-0.162-0.07-0.306-0.107-0.414c-0.863,0.144-1.854,0.288-2.953,0.414l-0.252-1.044
		c0.342-0.108,0.846-0.612,1.531-1.494l-1.117,0.108l-0.252-0.972c0.504-0.558,0.955-1.351,1.332-2.359l1.189,0.342
		c-0.342,0.774-0.738,1.404-1.189,1.908c0.271-0.036,0.541-0.054,0.793-0.09c0.197-0.288,0.396-0.594,0.611-0.918l1.172,0.432
		c-0.451,0.648-0.848,1.188-1.189,1.639l0.684-0.216C268.812,21.032,269.082,21.842,269.316,22.742z M266.293,23.462
		c-0.055,0.738-0.145,1.458-0.271,2.161l-1.08-0.378c0.18-0.63,0.307-1.314,0.379-2.035L266.293,23.462z M267.84,25.335
		l-1.098,0.144c-0.035-0.9-0.09-1.584-0.162-2.071l0.918-0.108C267.678,23.805,267.787,24.471,267.84,25.335z M266.777,21.788
		c0.379-0.072,0.738-0.126,1.062-0.198c-0.09-0.252-0.18-0.486-0.27-0.702C267.264,21.248,266.994,21.554,266.777,21.788z
		 M269.389,24.831l-0.973,0.36c-0.143-0.63-0.324-1.242-0.539-1.854l0.9-0.252C269.047,23.714,269.244,24.291,269.389,24.831z"/>
</g>
<g>
	<circle fill="#68D1DF" cx="49.995" cy="48.738" r="45.498"/>
</g>
<g>
	<g>
		<path fill="#FFFFFF" d="M17,61h-4c-0.552,0-1-0.447-1-1s0.448-1,1-1h3V36.587c0-1.013,0.354-1.877,1.022-2.5
			c1.295-1.205,3.294-1.101,3.518-1.085L76,33c0.552,0,1,0.448,1,1s-0.448,1-1,1H20.469c-0.439-0.024-1.528,0.029-2.087,0.555
			C18.218,35.708,18,35.983,18,36.587V60C18,60.553,17.552,61,17,61z"/>
	</g>
	<g>
		<path fill="#FFFFFF" d="M27.457,66.464c-3.51,0-6.366-2.855-6.366-6.365c0-3.511,2.855-6.366,6.366-6.366s6.366,2.855,6.366,6.366
			C33.823,63.608,30.967,66.464,27.457,66.464z M27.457,55.732c-2.407,0-4.366,1.959-4.366,4.366s1.958,4.365,4.366,4.365
			c2.408,0,4.366-1.958,4.366-4.365S29.864,55.732,27.457,55.732z"/>
	</g>
	<g>
		<path fill="#FFFFFF" d="M67.856,66.464c-3.51,0-6.366-2.855-6.366-6.365c0-3.511,2.855-6.366,6.366-6.366s6.366,2.855,6.366,6.366
			C74.222,63.608,71.366,66.464,67.856,66.464z M67.856,55.732c-2.407,0-4.366,1.959-4.366,4.366s1.958,4.365,4.366,4.365
			c2.408,0,4.366-1.958,4.366-4.365S70.264,55.732,67.856,55.732z"/>
	</g>
	<g>
		<path fill="#FFFFFF" d="M64,47h-5.256c-0.396,0-0.755-0.234-0.915-0.596c-0.16-0.362-0.091-0.785,0.175-1.077L61.946,41H58
			c-0.552,0-1-0.448-1-1s0.448-1,1-1h6.21c0.396,0,0.755,0.234,0.915,0.596c0.16,0.362,0.091,0.785-0.175,1.077L61.008,45H64
			c0.552,0,1,0.448,1,1S64.552,47,64,47z"/>
	</g>
	<g>
		<path fill="#FFFFFF" d="M67,48H55c-0.552,0-1-0.448-1-1v-9c0-0.552,0.448-1,1-1h12c0.552,0,1,0.448,1,1v9
			C68,47.552,67.552,48,67,48z M56,46h10v-7H56V46z"/>
	</g>
	<g>
		<path fill="#FFFFFF" d="M70,49.839c-0.07,0-0.142-0.007-0.212-0.023C69.328,49.716,69,49.31,69,48.839V34c0-0.552,0.448-1,1-1
			s1,0.448,1,1v10.228l2.149-4.722c0.229-0.503,0.822-0.724,1.324-0.496c0.503,0.229,0.725,0.822,0.496,1.324l-4.059,8.919
			C70.745,49.615,70.386,49.839,70,49.839z"/>
	</g>
	<g>
		<path fill="#FFFFFF" d="M86.284,61H73c-0.552,0-1-0.447-1-1s0.448-1,1-1h12.649c2.08-4.815-0.759-8.983-2.012-10.491l-7.335,5.065
			c-0.361,0.249-0.844,0.234-1.188-0.039c-0.345-0.272-0.471-0.738-0.312-1.147l2.492-6.392l-6.229,4.023
			c-0.462,0.299-1.083,0.167-1.382-0.297c-0.3-0.464-0.167-1.083,0.297-1.382l8.827-5.701c0.363-0.237,0.838-0.209,1.175,0.065
			c0.336,0.274,0.457,0.734,0.299,1.138l-2.43,6.232l5.371-3.708c0.392-0.271,0.919-0.228,1.262,0.102
			c0.066,0.063,6.526,6.412,2.693,13.983C87.006,60.788,86.661,61,86.284,61z"/>
	</g>
	<g>
		<path fill="#FFFFFF" d="M39,59.711c-3.309,0-6-2.641-6-5.886V51H17c-0.552,0-1-0.447-1-1c0-0.552,0.448-1,1-1h17
			c0.552,0,1,0.448,1,1v3.825c0,2.106,1.832,3.886,4,3.886s4-1.779,4-3.886V48c0-0.552,0.448-1,1-1s1,0.448,1,1v5.825
			C45,57.07,42.309,59.711,39,59.711z"/>
	</g>
	<g>
		<path fill="#FFFFFF" d="M55,60c-0.552,0-1-0.447-1-1v-5.882c0-2.188-2.419-3.886-4.5-3.886S45,50.93,45,53.118V59
			c0,0.553-0.448,1-1,1s-1-0.447-1-1v-5.882c0-3.369,3.432-5.886,6.5-5.886S56,49.75,56,53.118V59C56,59.553,55.552,60,55,60z"/>
	</g>
</g>
<g>
	<path fill="#68D1DF" d="M149.434,39.812c0.166,0,0.336,0.015,0.512,0.046c0.176,0.031,0.317,0.071,0.425,0.121v1.157
		c-0.197-0.054-0.411-0.081-0.642-0.081c-0.343,0-0.599,0.089-0.767,0.267c-0.167,0.177-0.251,0.472-0.251,0.885v0.388h0.925v1.075
		h-0.925v4.327h-1.423V43.67h-0.77v-1.075h0.77v-0.405c0-0.729,0.195-1.308,0.587-1.735S148.786,39.812,149.434,39.812z"/>
	<path fill="#68D1DF" d="M167.521,42.595v3.343c0,0.352,0.087,0.618,0.263,0.802c0.175,0.183,0.408,0.274,0.697,0.274
		c0.239,0,0.469-0.073,0.688-0.22s0.397-0.353,0.532-0.619v-3.58h1.423v5.402h-1.423v-0.734c-0.513,0.559-1.068,0.839-1.666,0.839
		c-0.579,0-1.045-0.189-1.4-0.567c-0.354-0.378-0.532-0.871-0.532-1.48v-3.459H167.521z"/>
	<path fill="#68D1DF" d="M191.434,42.49c0.578,0,1.039,0.19,1.385,0.569c0.346,0.38,0.518,0.881,0.518,1.502v3.436h-1.417v-3.291
		c0-0.352-0.084-0.629-0.251-0.833c-0.168-0.205-0.396-0.307-0.686-0.307c-0.221,0-0.427,0.064-0.619,0.193
		c-0.193,0.13-0.405,0.345-0.637,0.646v3.592h-1.423v-5.402h1.423v0.758c0.262-0.309,0.531-0.529,0.807-0.663
		C190.81,42.557,191.109,42.49,191.434,42.49z"/>
	<path fill="#68D1DF" d="M212.482,39.812c0.767,0,1.377,0.219,1.83,0.656s0.68,1.021,0.68,1.75c0,0.555-0.168,1.156-0.506,1.805
		c-0.338,0.647-0.931,1.506-1.779,2.574h2.771v1.399h-5.235v-0.168c0.609-0.752,1.133-1.428,1.57-2.027
		c0.438-0.6,0.776-1.097,1.016-1.492s0.409-0.731,0.509-1.01c0.1-0.277,0.15-0.564,0.15-0.861c0-0.37-0.119-0.682-0.355-0.935
		c-0.237-0.252-0.525-0.379-0.865-0.379c-0.609,0-1.242,0.348-1.896,1.041v-1.585C211.061,40.068,211.765,39.812,212.482,39.812z"/>
	<path fill="#68D1DF" d="M239.361,39.916v1.221h-2.869v6.86h-1.562v-6.86h-2.869v-1.221H239.361z"/>
	<path fill="#68D1DF" d="M257.072,39.916l2.012,4.986l2.117-4.986h1.32l2.127,5.004l2.008-5.004h1.598l-3.326,8.186H264.4
		l-2.545-5.993l-2.557,5.993h-0.51l-3.332-8.186H257.072z"/>
</g>
<g>
	<path fill="#808080" d="M119.046,69.281c0.133,0,0.246,0.047,0.34,0.141s0.141,0.205,0.141,0.334s-0.047,0.24-0.141,0.334
		s-0.207,0.141-0.34,0.141h-1.688c-0.062,0-0.094,0.031-0.094,0.094v2.086c0,0.148-0.053,0.275-0.158,0.381
		s-0.232,0.158-0.381,0.158s-0.275-0.053-0.381-0.158s-0.158-0.232-0.158-0.381v-2.086c0-0.062-0.027-0.094-0.082-0.094h-2.004
		c-0.055,0-0.09,0.031-0.105,0.094c-0.227,1.031-0.852,1.836-1.875,2.414c-0.094,0.047-0.188,0.07-0.281,0.07
		c-0.055,0-0.105-0.008-0.152-0.023c-0.148-0.039-0.277-0.121-0.387-0.246c-0.086-0.094-0.119-0.205-0.1-0.334
		s0.088-0.229,0.205-0.299c0.727-0.406,1.211-0.934,1.453-1.582c0.008-0.023,0.006-0.045-0.006-0.064s-0.029-0.029-0.053-0.029
		h-1.324c-0.133,0-0.246-0.047-0.34-0.141s-0.141-0.205-0.141-0.334s0.047-0.24,0.141-0.334s0.207-0.141,0.34-0.141h1.477
		c0.062,0,0.094-0.031,0.094-0.094c0.008-0.047,0.012-0.121,0.012-0.223v-1.066c0-0.055-0.031-0.082-0.094-0.082h-1.16
		c-0.133,0-0.244-0.045-0.334-0.135s-0.135-0.199-0.135-0.328s0.045-0.238,0.135-0.328s0.201-0.135,0.334-0.135h1.184
		c0.023,0,0.041-0.01,0.053-0.029s0.014-0.037,0.006-0.053c-0.07-0.164-0.164-0.344-0.281-0.539
		c-0.055-0.086-0.082-0.176-0.082-0.27c0-0.062,0.012-0.125,0.035-0.188c0.055-0.164,0.164-0.27,0.328-0.316l0.023-0.012
		c0.008,0,0.01-0.004,0.006-0.012s-0.01-0.012-0.018-0.012h-1.992c-0.055,0-0.082,0.027-0.082,0.082v0.434
		c0,2.852-0.379,5.016-1.137,6.492c-0.07,0.133-0.18,0.215-0.328,0.246c-0.047,0.008-0.09,0.012-0.129,0.012
		c-0.109,0-0.211-0.027-0.305-0.082c-0.133-0.078-0.219-0.191-0.258-0.34c-0.016-0.055-0.023-0.109-0.023-0.164
		c0-0.086,0.02-0.172,0.059-0.258c0.219-0.422,0.4-0.891,0.545-1.406s0.246-1.049,0.305-1.6s0.098-1.039,0.117-1.465
		s0.029-0.904,0.029-1.436v-2.812c0-0.188,0.068-0.35,0.205-0.486s0.299-0.205,0.486-0.205h7.582c0.195,0,0.359,0.068,0.492,0.205
		s0.199,0.299,0.199,0.486v1.605c0,0.188-0.066,0.35-0.199,0.486s-0.297,0.205-0.492,0.205h-0.645c-0.008,0-0.012,0.002-0.012,0.006
		s0.004,0.01,0.012,0.018c0.141,0.039,0.234,0.125,0.281,0.258c0.023,0.055,0.035,0.109,0.035,0.164c0,0.078-0.023,0.152-0.07,0.223
		c-0.188,0.281-0.352,0.512-0.492,0.691c-0.016,0.016-0.02,0.031-0.012,0.047s0.02,0.023,0.035,0.023h1.465
		c0.125,0,0.232,0.045,0.322,0.135s0.135,0.199,0.135,0.328s-0.045,0.238-0.135,0.328s-0.197,0.135-0.322,0.135h-1.371
		c-0.062,0-0.094,0.027-0.094,0.082v1.289c0,0.062,0.031,0.094,0.094,0.094H119.046z M111.066,63.434
		c-0.055,0-0.082,0.027-0.082,0.082v0.914c0,0.055,0.027,0.082,0.082,0.082h6.551c0.055,0,0.082-0.027,0.082-0.082v-0.914
		c0-0.055-0.027-0.082-0.082-0.082H111.066z M116.843,65.543c0.008-0.023,0.006-0.043-0.006-0.059s-0.025-0.023-0.041-0.023h-3.316
		c-0.016,0-0.027,0.008-0.035,0.023s-0.008,0.031,0,0.047c0.219,0.281,0.402,0.566,0.551,0.855c0.047,0.094,0.047,0.189,0,0.287
		s-0.125,0.166-0.234,0.205v0.012h2.836c0.008-0.008,0.008-0.016,0-0.023c-0.117-0.031-0.195-0.102-0.234-0.211
		s-0.027-0.215,0.035-0.316C116.578,66.051,116.726,65.785,116.843,65.543z M114.125,69.188c0,0.062,0.027,0.094,0.082,0.094h1.898
		c0.055,0,0.082-0.031,0.082-0.094v-1.289c0-0.055-0.027-0.082-0.082-0.082h-1.898c-0.055,0-0.082,0.027-0.082,0.082v1.078V69.188z"
		/>
	<path fill="#808080" d="M142.484,68.66c0,0.188-0.068,0.35-0.205,0.486s-0.299,0.205-0.486,0.205h-2.098
		c-0.016,0-0.025,0.006-0.029,0.018s-0.002,0.025,0.006,0.041c0.453,0.438,0.986,0.85,1.6,1.236s1.24,0.709,1.881,0.967
		c0.133,0.055,0.215,0.152,0.246,0.293c0.008,0.039,0.012,0.074,0.012,0.105c0,0.102-0.035,0.191-0.105,0.27
		c-0.117,0.148-0.262,0.246-0.434,0.293c-0.07,0.023-0.137,0.035-0.199,0.035c-0.109,0-0.211-0.023-0.305-0.07
		c-0.648-0.312-1.285-0.695-1.91-1.148s-1.18-0.941-1.664-1.465c-0.008-0.008-0.02-0.01-0.035-0.006s-0.023,0.014-0.023,0.029v2.402
		c0,0.164-0.057,0.303-0.17,0.416s-0.25,0.17-0.41,0.17s-0.297-0.057-0.41-0.17s-0.17-0.252-0.17-0.416v-2.355
		c0-0.016-0.008-0.025-0.023-0.029s-0.027-0.002-0.035,0.006c-0.992,1.055-2.164,1.906-3.516,2.555
		c-0.102,0.047-0.199,0.07-0.293,0.07c-0.07,0-0.137-0.008-0.199-0.023c-0.164-0.047-0.305-0.141-0.422-0.281
		c-0.07-0.086-0.105-0.176-0.105-0.27c0-0.039,0.004-0.074,0.012-0.105c0.039-0.141,0.121-0.238,0.246-0.293
		c0.633-0.273,1.248-0.602,1.846-0.984s1.119-0.793,1.564-1.23c0.008-0.008,0.01-0.02,0.006-0.035s-0.014-0.023-0.029-0.023h-1.922
		c-0.195,0-0.359-0.068-0.492-0.205s-0.199-0.299-0.199-0.486v-3.059c0-0.195,0.066-0.359,0.199-0.492s0.297-0.199,0.492-0.199
		h2.777c0.062,0,0.094-0.031,0.094-0.094v-0.691c0-0.062-0.031-0.094-0.094-0.094h-3.973c-0.148,0-0.271-0.051-0.369-0.152
		s-0.146-0.223-0.146-0.363s0.049-0.262,0.146-0.363S133.359,63,133.507,63h3.973c0.062,0,0.094-0.031,0.094-0.094V62.52
		c0-0.164,0.057-0.303,0.17-0.416s0.25-0.17,0.41-0.17s0.297,0.057,0.41,0.17s0.17,0.252,0.17,0.416v0.387
		c0,0.062,0.031,0.094,0.094,0.094h4.078c0.148,0,0.271,0.051,0.369,0.152s0.146,0.223,0.146,0.363s-0.049,0.262-0.146,0.363
		s-0.221,0.152-0.369,0.152h-4.078c-0.062,0-0.094,0.031-0.094,0.094v0.691c0,0.062,0.031,0.094,0.094,0.094h2.965
		c0.188,0,0.35,0.066,0.486,0.199s0.205,0.297,0.205,0.492V68.66z M135.183,65.766c-0.055,0-0.082,0.027-0.082,0.082v0.785
		c0,0.055,0.027,0.082,0.082,0.082h2.297c0.062,0,0.094-0.027,0.094-0.082v-0.785c0-0.055-0.031-0.082-0.094-0.082H135.183z
		 M135.183,67.523c-0.055,0-0.082,0.031-0.082,0.094v0.785c0,0.062,0.027,0.094,0.082,0.094h2.297c0.062,0,0.094-0.031,0.094-0.094
		v-0.785c0-0.062-0.031-0.094-0.094-0.094H135.183z M141.347,65.848c0-0.055-0.027-0.082-0.082-0.082h-2.438
		c-0.062,0-0.094,0.027-0.094,0.082v0.785c0,0.055,0.031,0.082,0.094,0.082h2.438c0.055,0,0.082-0.027,0.082-0.082V65.848z
		 M141.265,68.496c0.055,0,0.082-0.031,0.082-0.094v-0.785c0-0.062-0.027-0.094-0.082-0.094h-2.438
		c-0.062,0-0.094,0.031-0.094,0.094v0.785c0,0.062,0.031,0.094,0.094,0.094H141.265z"/>
	<path fill="#808080" d="M164.562,64.922c0.117-0.023,0.23-0.004,0.34,0.059l0.199,0.129c0.102,0.062,0.166,0.152,0.193,0.27
		s0.006,0.223-0.064,0.316c-0.484,0.68-1.121,1.301-1.91,1.863c-0.016,0.008-0.021,0.021-0.018,0.041s0.014,0.033,0.029,0.041
		c1.117,0.453,2.367,0.777,3.75,0.973c0.141,0.023,0.238,0.102,0.293,0.234c0.023,0.055,0.035,0.105,0.035,0.152
		c0,0.078-0.023,0.152-0.07,0.223c-0.109,0.164-0.254,0.289-0.434,0.375c-0.125,0.062-0.25,0.094-0.375,0.094
		c-0.055,0-0.109-0.008-0.164-0.023c-0.227-0.039-0.465-0.086-0.715-0.141c-0.055-0.016-0.082,0.008-0.082,0.07v2.742
		c0,0.156-0.057,0.291-0.17,0.404s-0.248,0.17-0.404,0.17h-0.246c-0.094,0-0.172-0.031-0.234-0.094s-0.094-0.137-0.094-0.223
		c0-0.031-0.012-0.047-0.035-0.047h-4.371c-0.023,0-0.035,0.016-0.035,0.047c0,0.094-0.033,0.174-0.1,0.24s-0.146,0.1-0.24,0.1
		h-0.211c-0.148,0-0.277-0.053-0.387-0.158s-0.164-0.236-0.164-0.393v-2.684c0-0.023-0.008-0.041-0.023-0.053
		s-0.035-0.018-0.059-0.018c-0.312,0.094-0.668,0.188-1.066,0.281c-0.047,0.008-0.098,0.012-0.152,0.012
		c-0.102,0-0.203-0.023-0.305-0.07c-0.141-0.078-0.254-0.191-0.34-0.34c-0.031-0.062-0.047-0.125-0.047-0.188
		c0-0.055,0.012-0.109,0.035-0.164c0.047-0.117,0.133-0.191,0.258-0.223c1.422-0.281,2.711-0.695,3.867-1.242
		c0.016-0.016,0.025-0.033,0.029-0.053s-0.002-0.033-0.018-0.041c-0.492-0.344-0.91-0.699-1.254-1.066
		c-0.039-0.039-0.082-0.043-0.129-0.012c-0.336,0.258-0.711,0.496-1.125,0.715c-0.094,0.039-0.188,0.059-0.281,0.059
		c-0.055,0-0.109-0.004-0.164-0.012c-0.148-0.039-0.277-0.121-0.387-0.246c-0.086-0.094-0.119-0.205-0.1-0.334
		s0.088-0.221,0.205-0.275c1.047-0.508,1.887-1.133,2.52-1.875c0.125-0.141,0.27-0.246,0.434-0.316
		c0.109-0.039,0.223-0.059,0.34-0.059c0.062,0,0.121,0.004,0.176,0.012c0.141,0.031,0.234,0.113,0.281,0.246
		c0.023,0.047,0.035,0.094,0.035,0.141c0,0.078-0.027,0.152-0.082,0.223c-0.016,0.016-0.035,0.035-0.059,0.059
		c-0.008,0.016-0.008,0.031,0,0.047s0.02,0.023,0.035,0.023h3.012C164.531,64.934,164.547,64.93,164.562,64.922z M158.316,63.973
		c-0.062,0-0.094,0.027-0.094,0.082v0.762c0,0.148-0.053,0.277-0.158,0.387s-0.234,0.164-0.387,0.164s-0.281-0.055-0.387-0.164
		s-0.158-0.238-0.158-0.387v-1.16c0-0.195,0.066-0.359,0.199-0.492s0.297-0.199,0.492-0.199h3.668c0.062,0,0.094-0.031,0.094-0.094
		v-0.363c0-0.164,0.055-0.301,0.164-0.41s0.244-0.164,0.404-0.164s0.295,0.055,0.404,0.164s0.164,0.246,0.164,0.41v0.363
		c0,0.062,0.031,0.094,0.094,0.094h3.727c0.195,0,0.359,0.066,0.492,0.199s0.199,0.297,0.199,0.492v1.137
		c0,0.156-0.055,0.291-0.164,0.404s-0.244,0.17-0.404,0.17s-0.295-0.057-0.404-0.17s-0.164-0.248-0.164-0.404v-0.738
		c0-0.055-0.031-0.082-0.094-0.082H158.316z M159.98,71.531c0,0.055,0.027,0.082,0.082,0.082h4.277c0.055,0,0.082-0.027,0.082-0.082
		v-1.254c0-0.062-0.027-0.094-0.082-0.094h-4.277c-0.055,0-0.082,0.031-0.082,0.094V71.531z M160.039,69.234
		c-0.008,0-0.012,0.006-0.012,0.018s0.004,0.018,0.012,0.018h4.512c0.008,0,0.014-0.004,0.018-0.012s0.002-0.016-0.006-0.023
		c-0.852-0.258-1.621-0.562-2.309-0.914c-0.055-0.023-0.109-0.023-0.164,0C161.488,68.648,160.805,68.953,160.039,69.234z
		 M160.66,65.789c-0.031,0-0.059,0.01-0.082,0.029s-0.023,0.041,0,0.064c0.422,0.438,0.93,0.824,1.523,1.16
		c0.055,0.031,0.105,0.031,0.152,0c0.609-0.383,1.105-0.781,1.488-1.195c0.016-0.008,0.02-0.02,0.012-0.035s-0.02-0.023-0.035-0.023
		H160.66z"/>
	<path fill="#808080" d="M182.574,66.586c0.195,0,0.359,0.068,0.492,0.205s0.199,0.299,0.199,0.486v3.059
		c0,0.062,0.016,0.117,0.047,0.164c0.5,0.734,1.418,1.129,2.754,1.184c0.586,0.031,1.207,0.047,1.863,0.047
		c0.992,0,2.066-0.031,3.223-0.094c0.133-0.008,0.234,0.043,0.305,0.152c0.055,0.07,0.082,0.145,0.082,0.223
		c0,0.039-0.008,0.082-0.023,0.129c-0.055,0.164-0.148,0.301-0.281,0.41s-0.281,0.164-0.445,0.164c-1,0.031-1.926,0.047-2.777,0.047
		c-0.703,0-1.355-0.012-1.957-0.035c-0.742-0.023-1.371-0.139-1.887-0.346s-0.953-0.525-1.312-0.955
		c-0.039-0.047-0.078-0.051-0.117-0.012c-0.328,0.312-0.695,0.652-1.102,1.02c-0.086,0.078-0.188,0.117-0.305,0.117
		c-0.031,0-0.062-0.004-0.094-0.012c-0.156-0.031-0.27-0.113-0.34-0.246c-0.047-0.102-0.07-0.207-0.07-0.316
		c0-0.062,0.008-0.125,0.023-0.188c0.047-0.164,0.141-0.301,0.281-0.41c0.344-0.258,0.676-0.527,0.996-0.809
		c0.047-0.039,0.07-0.086,0.07-0.141v-2.719c0-0.062-0.027-0.094-0.082-0.094h-0.844c-0.141,0-0.262-0.051-0.363-0.152
		s-0.152-0.223-0.152-0.363s0.051-0.262,0.152-0.363s0.223-0.152,0.363-0.152H182.574z M183.254,63.691
		c0.078,0.102,0.117,0.215,0.117,0.34c0,0.031,0,0.059,0,0.082c-0.023,0.164-0.102,0.297-0.234,0.398
		c-0.094,0.07-0.195,0.105-0.305,0.105c-0.031,0-0.062-0.004-0.094-0.012c-0.148-0.023-0.27-0.098-0.363-0.223
		c-0.305-0.383-0.68-0.777-1.125-1.184c-0.102-0.086-0.152-0.191-0.152-0.316c0-0.141,0.059-0.254,0.176-0.34
		s0.25-0.129,0.398-0.129c0.008,0,0.016,0,0.023,0c0.156,0,0.293,0.051,0.41,0.152C182.566,62.957,182.949,63.332,183.254,63.691z
		 M187.994,71.227c-0.105,0.109-0.234,0.164-0.387,0.164s-0.281-0.055-0.387-0.164s-0.158-0.238-0.158-0.387v-0.352
		c0-0.055-0.031-0.082-0.094-0.082h-2.766c-0.117,0-0.217-0.041-0.299-0.123s-0.123-0.182-0.123-0.299s0.041-0.217,0.123-0.299
		s0.182-0.123,0.299-0.123h2.766c0.062,0,0.094-0.027,0.094-0.082v-0.422c0-0.055-0.031-0.082-0.094-0.082h-1.723
		c-0.195,0-0.359-0.068-0.492-0.205s-0.199-0.299-0.199-0.486v-2.051c0-0.188,0.066-0.35,0.199-0.486s0.297-0.205,0.492-0.205h1.723
		c0.062,0,0.094-0.027,0.094-0.082v-0.434c0-0.055-0.031-0.082-0.094-0.082h-2.344c-0.109,0-0.203-0.039-0.281-0.117
		s-0.117-0.174-0.117-0.287s0.039-0.209,0.117-0.287s0.172-0.117,0.281-0.117h2.355c0.055,0,0.082-0.027,0.082-0.082v-0.117
		c0-0.148,0.053-0.275,0.158-0.381s0.234-0.158,0.387-0.158s0.281,0.053,0.387,0.158s0.158,0.232,0.158,0.381v0.117
		c0,0.055,0.027,0.082,0.082,0.082h2.391c0.117,0,0.215,0.039,0.293,0.117s0.117,0.174,0.117,0.287s-0.039,0.209-0.117,0.287
		s-0.176,0.117-0.293,0.117h-2.391c-0.055,0-0.082,0.027-0.082,0.082v0.434c0,0.055,0.027,0.082,0.082,0.082h1.816
		c0.195,0,0.359,0.068,0.492,0.205s0.199,0.299,0.199,0.486v2.051c0,0.188-0.066,0.35-0.199,0.486s-0.297,0.205-0.492,0.205h-1.816
		c-0.055,0-0.082,0.027-0.082,0.082v0.422c0,0.055,0.027,0.082,0.082,0.082h2.883c0.117,0,0.217,0.041,0.299,0.123
		s0.123,0.182,0.123,0.299s-0.041,0.217-0.123,0.299s-0.182,0.123-0.299,0.123h-2.883c-0.055,0-0.082,0.027-0.082,0.082v0.352
		C188.152,70.988,188.1,71.117,187.994,71.227z M185.023,63.152c-0.055,0-0.082,0.031-0.082,0.094v0.176
		c0,0.133-0.049,0.248-0.146,0.346s-0.215,0.146-0.352,0.146s-0.252-0.049-0.346-0.146s-0.141-0.213-0.141-0.346v-0.398
		c0-0.195,0.066-0.359,0.199-0.492s0.297-0.199,0.492-0.199h6.012c0.195,0,0.359,0.066,0.492,0.199s0.199,0.297,0.199,0.492v0.375
		c0,0.141-0.049,0.262-0.146,0.363s-0.219,0.152-0.363,0.152s-0.268-0.051-0.369-0.152s-0.152-0.223-0.152-0.363v-0.152
		c0-0.062-0.027-0.094-0.082-0.094H185.023z M185.598,66.27c-0.055,0-0.082,0.027-0.082,0.082v0.469
		c0,0.062,0.027,0.094,0.082,0.094h1.371c0.062,0,0.094-0.031,0.094-0.094v-0.469c0-0.055-0.031-0.082-0.094-0.082H185.598z
		 M185.516,68.168c0,0.062,0.027,0.094,0.082,0.094h1.371c0.062,0,0.094-0.031,0.094-0.094v-0.492c0-0.062-0.031-0.094-0.094-0.094
		h-1.371c-0.055,0-0.082,0.031-0.082,0.094V68.168z M189.746,66.352c0-0.055-0.027-0.082-0.082-0.082h-1.43
		c-0.055,0-0.082,0.027-0.082,0.082v0.469c0,0.062,0.027,0.094,0.082,0.094h1.43c0.055,0,0.082-0.031,0.082-0.094V66.352z
		 M189.664,68.262c0.055,0,0.082-0.031,0.082-0.094v-0.492c0-0.062-0.027-0.094-0.082-0.094h-1.43c-0.055,0-0.082,0.031-0.082,0.094
		v0.492c0,0.062,0.027,0.094,0.082,0.094H189.664z"/>
	<path fill="#808080" d="M204.594,72c-0.047,0-0.082-0.023-0.105-0.07c-0.016-0.016-0.023-0.035-0.023-0.059s0.008-0.047,0.023-0.07
		l2.016-3.059c0.023-0.031,0.023-0.059,0-0.082l-1.816-2.789c-0.031-0.039-0.033-0.082-0.006-0.129s0.064-0.07,0.111-0.07
		c0.164,0,0.289,0.07,0.375,0.211l0.938,1.477c0.016,0.023,0.242,0.363,0.68,1.02c0.008,0.016,0.02,0.023,0.035,0.023
		s0.027-0.008,0.035-0.023c0.352-0.547,0.574-0.887,0.668-1.02l0.914-1.488c0.086-0.133,0.203-0.199,0.352-0.199
		c0.047,0,0.082,0.021,0.105,0.064s0.023,0.088,0,0.135l-1.828,2.812c-0.016,0.023-0.016,0.051,0,0.082l2.004,3.035
		c0.016,0.023,0.023,0.047,0.023,0.07c0,0.016-0.004,0.035-0.012,0.059c-0.023,0.047-0.062,0.07-0.117,0.07
		c-0.164,0-0.289-0.07-0.375-0.211l-1.043-1.605c-0.203-0.336-0.449-0.715-0.738-1.137c-0.016-0.016-0.033-0.023-0.053-0.023
		s-0.033,0.008-0.041,0.023c-0.094,0.133-0.34,0.512-0.738,1.137l-1.02,1.617C204.871,71.934,204.75,72,204.594,72z"/>
	<path fill="#808080" d="M232.25,69.281c0.133,0,0.246,0.047,0.34,0.141s0.141,0.205,0.141,0.334s-0.047,0.24-0.141,0.334
		s-0.207,0.141-0.34,0.141h-1.688c-0.062,0-0.094,0.031-0.094,0.094v2.086c0,0.148-0.053,0.275-0.158,0.381
		s-0.232,0.158-0.381,0.158s-0.275-0.053-0.381-0.158s-0.158-0.232-0.158-0.381v-2.086c0-0.062-0.027-0.094-0.082-0.094h-2.004
		c-0.055,0-0.09,0.031-0.105,0.094c-0.227,1.031-0.852,1.836-1.875,2.414c-0.094,0.047-0.188,0.07-0.281,0.07
		c-0.055,0-0.105-0.008-0.152-0.023c-0.148-0.039-0.277-0.121-0.387-0.246c-0.086-0.094-0.119-0.205-0.1-0.334
		s0.088-0.229,0.205-0.299c0.727-0.406,1.211-0.934,1.453-1.582c0.008-0.023,0.006-0.045-0.006-0.064s-0.029-0.029-0.053-0.029
		h-1.324c-0.133,0-0.246-0.047-0.34-0.141s-0.141-0.205-0.141-0.334s0.047-0.24,0.141-0.334s0.207-0.141,0.34-0.141h1.477
		c0.062,0,0.094-0.031,0.094-0.094c0.008-0.047,0.012-0.121,0.012-0.223v-1.066c0-0.055-0.031-0.082-0.094-0.082h-1.16
		c-0.133,0-0.244-0.045-0.334-0.135s-0.135-0.199-0.135-0.328s0.045-0.238,0.135-0.328s0.201-0.135,0.334-0.135h1.184
		c0.023,0,0.041-0.01,0.053-0.029s0.014-0.037,0.006-0.053c-0.07-0.164-0.164-0.344-0.281-0.539
		c-0.055-0.086-0.082-0.176-0.082-0.27c0-0.062,0.012-0.125,0.035-0.188c0.055-0.164,0.164-0.27,0.328-0.316l0.023-0.012
		c0.008,0,0.01-0.004,0.006-0.012s-0.01-0.012-0.018-0.012h-1.992c-0.055,0-0.082,0.027-0.082,0.082v0.434
		c0,2.852-0.379,5.016-1.137,6.492c-0.07,0.133-0.18,0.215-0.328,0.246c-0.047,0.008-0.09,0.012-0.129,0.012
		c-0.109,0-0.211-0.027-0.305-0.082c-0.133-0.078-0.219-0.191-0.258-0.34c-0.016-0.055-0.023-0.109-0.023-0.164
		c0-0.086,0.02-0.172,0.059-0.258c0.219-0.422,0.4-0.891,0.545-1.406s0.246-1.049,0.305-1.6s0.098-1.039,0.117-1.465
		s0.029-0.904,0.029-1.436v-2.812c0-0.188,0.068-0.35,0.205-0.486s0.299-0.205,0.486-0.205h7.582c0.195,0,0.359,0.068,0.492,0.205
		s0.199,0.299,0.199,0.486v1.605c0,0.188-0.066,0.35-0.199,0.486s-0.297,0.205-0.492,0.205h-0.645c-0.008,0-0.012,0.002-0.012,0.006
		s0.004,0.01,0.012,0.018c0.141,0.039,0.234,0.125,0.281,0.258c0.023,0.055,0.035,0.109,0.035,0.164c0,0.078-0.023,0.152-0.07,0.223
		c-0.188,0.281-0.352,0.512-0.492,0.691c-0.016,0.016-0.02,0.031-0.012,0.047s0.02,0.023,0.035,0.023h1.465
		c0.125,0,0.232,0.045,0.322,0.135s0.135,0.199,0.135,0.328s-0.045,0.238-0.135,0.328s-0.197,0.135-0.322,0.135h-1.371
		c-0.062,0-0.094,0.027-0.094,0.082v1.289c0,0.062,0.031,0.094,0.094,0.094H232.25z M224.27,63.434
		c-0.055,0-0.082,0.027-0.082,0.082v0.914c0,0.055,0.027,0.082,0.082,0.082h6.551c0.055,0,0.082-0.027,0.082-0.082v-0.914
		c0-0.055-0.027-0.082-0.082-0.082H224.27z M230.047,65.543c0.008-0.023,0.006-0.043-0.006-0.059s-0.025-0.023-0.041-0.023h-3.316
		c-0.016,0-0.027,0.008-0.035,0.023s-0.008,0.031,0,0.047c0.219,0.281,0.402,0.566,0.551,0.855c0.047,0.094,0.047,0.189,0,0.287
		s-0.125,0.166-0.234,0.205v0.012h2.836c0.008-0.008,0.008-0.016,0-0.023c-0.117-0.031-0.195-0.102-0.234-0.211
		s-0.027-0.215,0.035-0.316C229.781,66.051,229.93,65.785,230.047,65.543z M227.328,69.188c0,0.062,0.027,0.094,0.082,0.094h1.898
		c0.055,0,0.082-0.031,0.082-0.094v-1.289c0-0.055-0.027-0.082-0.082-0.082h-1.898c-0.055,0-0.082,0.027-0.082,0.082v1.078V69.188z"
		/>
	<path fill="#808080" d="M255.688,68.66c0,0.188-0.068,0.35-0.205,0.486s-0.299,0.205-0.486,0.205h-2.098
		c-0.016,0-0.025,0.006-0.029,0.018s-0.002,0.025,0.006,0.041c0.453,0.438,0.986,0.85,1.6,1.236s1.24,0.709,1.881,0.967
		c0.133,0.055,0.215,0.152,0.246,0.293c0.008,0.039,0.012,0.074,0.012,0.105c0,0.102-0.035,0.191-0.105,0.27
		c-0.117,0.148-0.262,0.246-0.434,0.293c-0.07,0.023-0.137,0.035-0.199,0.035c-0.109,0-0.211-0.023-0.305-0.07
		c-0.648-0.312-1.285-0.695-1.91-1.148s-1.18-0.941-1.664-1.465c-0.008-0.008-0.02-0.01-0.035-0.006s-0.023,0.014-0.023,0.029v2.402
		c0,0.164-0.057,0.303-0.17,0.416s-0.25,0.17-0.41,0.17s-0.297-0.057-0.41-0.17s-0.17-0.252-0.17-0.416v-2.355
		c0-0.016-0.008-0.025-0.023-0.029s-0.027-0.002-0.035,0.006c-0.992,1.055-2.164,1.906-3.516,2.555
		c-0.102,0.047-0.199,0.07-0.293,0.07c-0.07,0-0.137-0.008-0.199-0.023c-0.164-0.047-0.305-0.141-0.422-0.281
		c-0.07-0.086-0.105-0.176-0.105-0.27c0-0.039,0.004-0.074,0.012-0.105c0.039-0.141,0.121-0.238,0.246-0.293
		c0.633-0.273,1.248-0.602,1.846-0.984s1.119-0.793,1.564-1.23c0.008-0.008,0.01-0.02,0.006-0.035s-0.014-0.023-0.029-0.023h-1.922
		c-0.195,0-0.359-0.068-0.492-0.205s-0.199-0.299-0.199-0.486v-3.059c0-0.195,0.066-0.359,0.199-0.492s0.297-0.199,0.492-0.199
		h2.777c0.062,0,0.094-0.031,0.094-0.094v-0.691c0-0.062-0.031-0.094-0.094-0.094h-3.973c-0.148,0-0.271-0.051-0.369-0.152
		s-0.146-0.223-0.146-0.363s0.049-0.262,0.146-0.363S246.562,63,246.711,63h3.973c0.062,0,0.094-0.031,0.094-0.094V62.52
		c0-0.164,0.057-0.303,0.17-0.416s0.25-0.17,0.41-0.17s0.297,0.057,0.41,0.17s0.17,0.252,0.17,0.416v0.387
		c0,0.062,0.031,0.094,0.094,0.094h4.078c0.148,0,0.271,0.051,0.369,0.152s0.146,0.223,0.146,0.363s-0.049,0.262-0.146,0.363
		s-0.221,0.152-0.369,0.152h-4.078c-0.062,0-0.094,0.031-0.094,0.094v0.691c0,0.062,0.031,0.094,0.094,0.094h2.965
		c0.188,0,0.35,0.066,0.486,0.199s0.205,0.297,0.205,0.492V68.66z M248.387,65.766c-0.055,0-0.082,0.027-0.082,0.082v0.785
		c0,0.055,0.027,0.082,0.082,0.082h2.297c0.062,0,0.094-0.027,0.094-0.082v-0.785c0-0.055-0.031-0.082-0.094-0.082H248.387z
		 M248.387,67.523c-0.055,0-0.082,0.031-0.082,0.094v0.785c0,0.062,0.027,0.094,0.082,0.094h2.297c0.062,0,0.094-0.031,0.094-0.094
		v-0.785c0-0.062-0.031-0.094-0.094-0.094H248.387z M254.551,65.848c0-0.055-0.027-0.082-0.082-0.082h-2.438
		c-0.062,0-0.094,0.027-0.094,0.082v0.785c0,0.055,0.031,0.082,0.094,0.082h2.438c0.055,0,0.082-0.027,0.082-0.082V65.848z
		 M254.469,68.496c0.055,0,0.082-0.031,0.082-0.094v-0.785c0-0.062-0.027-0.094-0.082-0.094h-2.438
		c-0.062,0-0.094,0.031-0.094,0.094v0.785c0,0.062,0.031,0.094,0.094,0.094H254.469z"/>
	<path fill="#808080" d="M272.27,66.141c0,0.055,0.027,0.082,0.082,0.082h1.441c0.188,0,0.348,0.07,0.48,0.211
		c0.133,0.133,0.199,0.289,0.199,0.469c0,1.477-0.047,2.84-0.141,4.09c-0.055,0.758-0.156,1.238-0.305,1.441
		c-0.172,0.25-0.414,0.395-0.727,0.434c-0.164,0.023-0.383,0.035-0.656,0.035c-0.023,0-0.047,0-0.07,0
		c-0.148,0-0.277-0.051-0.387-0.152s-0.188-0.227-0.234-0.375c-0.031-0.109-0.012-0.213,0.059-0.311s0.16-0.143,0.27-0.135
		c0.141,0.008,0.305,0.012,0.492,0.012c0.164,0,0.281-0.055,0.352-0.164c0.094-0.125,0.162-0.508,0.205-1.148
		s0.08-1.738,0.111-3.293c0-0.062-0.027-0.094-0.082-0.094h-1.02c-0.055,0-0.082,0.031-0.082,0.094
		c-0.07,2.133-0.531,3.867-1.383,5.203c-0.07,0.109-0.18,0.172-0.328,0.188c-0.016,0.008-0.035,0.012-0.059,0.012
		c-0.117,0-0.223-0.039-0.316-0.117c-0.109-0.094-0.176-0.215-0.199-0.363c-0.008-0.031-0.012-0.062-0.012-0.094
		c0-0.109,0.027-0.211,0.082-0.305c0.266-0.414,0.484-0.855,0.656-1.324s0.299-0.941,0.381-1.418s0.137-0.908,0.164-1.295
		s0.041-0.807,0.041-1.26v-1.629c0-0.055-0.031-0.082-0.094-0.082h-0.703c-0.148,0-0.273-0.051-0.375-0.152
		s-0.152-0.225-0.152-0.369s0.051-0.268,0.152-0.369s0.227-0.152,0.375-0.152h1.359c0.055,0,0.082-0.031,0.082-0.094v-1.242
		c0-0.141,0.053-0.264,0.158-0.369s0.232-0.158,0.381-0.158s0.273,0.053,0.375,0.158s0.152,0.229,0.152,0.369v1.242
		c0,0.062,0.031,0.094,0.094,0.094h1.066c0.188,0,0.35,0.066,0.486,0.199s0.205,0.297,0.205,0.492v0.188
		c0,0.016,0.006,0.025,0.018,0.029s0.021-0.002,0.029-0.018c0.438-0.648,0.785-1.395,1.043-2.238
		c0.047-0.148,0.137-0.266,0.27-0.352c0.094-0.062,0.195-0.094,0.305-0.094c0.039,0,0.078,0.008,0.117,0.023
		c0.156,0.031,0.273,0.109,0.352,0.234c0.047,0.086,0.07,0.172,0.07,0.258c0,0.055-0.008,0.109-0.023,0.164
		c-0.07,0.234-0.148,0.457-0.234,0.668c0,0.016,0.006,0.033,0.018,0.053s0.025,0.029,0.041,0.029h3.34
		c0.141,0,0.262,0.051,0.363,0.152s0.152,0.223,0.152,0.363s-0.051,0.262-0.152,0.363s-0.223,0.152-0.363,0.152h-3.797
		c-0.055,0-0.098,0.027-0.129,0.082c-0.234,0.461-0.5,0.883-0.797,1.266c-0.094,0.125-0.223,0.191-0.387,0.199
		c-0.016,0-0.027,0-0.035,0c-0.148,0-0.277-0.043-0.387-0.129c-0.117-0.094-0.184-0.215-0.199-0.363c0-0.023,0-0.047,0-0.07
		c0-0.117,0.039-0.227,0.117-0.328c0.055-0.07,0.105-0.141,0.152-0.211c0.016-0.016,0.02-0.031,0.012-0.047
		s-0.023-0.023-0.047-0.023h-2.344c-0.055,0-0.082,0.027-0.082,0.082V66.141z M279.84,67.172c0.102-0.102,0.227-0.156,0.375-0.164
		c0.008,0,0.016,0,0.023,0c0.133,0,0.25,0.043,0.352,0.129c0.109,0.102,0.164,0.223,0.164,0.363s-0.051,0.254-0.152,0.34
		c-0.453,0.406-0.965,0.812-1.535,1.219c-0.047,0.031-0.059,0.074-0.035,0.129c0.391,1.062,0.902,1.875,1.535,2.438
		c0.125,0.117,0.188,0.262,0.188,0.434c0,0.133-0.043,0.254-0.129,0.363c-0.102,0.125-0.23,0.199-0.387,0.223
		c-0.031,0-0.059,0-0.082,0c-0.125,0-0.234-0.043-0.328-0.129c-1.141-1.07-1.93-2.906-2.367-5.508
		c-0.008-0.055-0.039-0.07-0.094-0.047c-0.117,0.055-0.277,0.121-0.48,0.199c-0.055,0.016-0.082,0.055-0.082,0.117v5.133
		c0,0.141-0.053,0.264-0.158,0.369s-0.23,0.158-0.375,0.158s-0.268-0.053-0.369-0.158s-0.152-0.229-0.152-0.369v-4.781
		c0-0.039-0.02-0.055-0.059-0.047c-0.125,0.039-0.246,0.035-0.363-0.012s-0.211-0.125-0.281-0.234
		c-0.031-0.039-0.059-0.078-0.082-0.117c-0.047-0.062-0.07-0.133-0.07-0.211c0-0.039,0.004-0.082,0.012-0.129
		c0.047-0.125,0.129-0.203,0.246-0.234c0.711-0.188,1.428-0.428,2.15-0.721s1.33-0.6,1.822-0.92
		c0.125-0.078,0.264-0.117,0.416-0.117s0.287,0.043,0.404,0.129c0.102,0.078,0.152,0.18,0.152,0.305s-0.051,0.223-0.152,0.293
		c-0.438,0.289-0.938,0.574-1.5,0.855c-0.055,0.023-0.078,0.062-0.07,0.117c0.078,0.5,0.184,1.004,0.316,1.512
		c0,0.023,0.01,0.037,0.029,0.041s0.037,0.002,0.053-0.006C279.195,67.781,279.551,67.461,279.84,67.172z"/>
	<path fill="#808080" d="M296.715,64.699c0.094-0.141,0.219-0.238,0.375-0.293c0.07-0.023,0.145-0.035,0.223-0.035
		s0.156,0.016,0.234,0.047c0.141,0.055,0.23,0.148,0.27,0.281c0.023,0.055,0.035,0.105,0.035,0.152c0,0.086-0.027,0.164-0.082,0.234
		c-0.297,0.453-0.609,0.883-0.938,1.289c-0.039,0.047-0.059,0.102-0.059,0.164v5.602c0,0.156-0.055,0.289-0.164,0.398
		s-0.24,0.164-0.393,0.164s-0.283-0.055-0.393-0.164s-0.164-0.242-0.164-0.398v-4.359c0-0.023-0.008-0.037-0.023-0.041
		s-0.027-0.002-0.035,0.006c-0.211,0.211-0.434,0.418-0.668,0.621c-0.102,0.086-0.215,0.129-0.34,0.129c-0.031,0-0.059,0-0.082,0
		c-0.164-0.023-0.297-0.102-0.398-0.234c-0.086-0.109-0.129-0.234-0.129-0.375c0-0.18,0.066-0.324,0.199-0.434
		c0.461-0.375,0.91-0.797,1.348-1.266C295.984,65.695,296.379,65.199,296.715,64.699z M296.199,62.109
		c0.109-0.125,0.246-0.211,0.41-0.258c0.062-0.023,0.129-0.035,0.199-0.035c0.094,0,0.188,0.02,0.281,0.059
		c0.133,0.055,0.215,0.152,0.246,0.293c0.016,0.039,0.023,0.078,0.023,0.117c0,0.094-0.035,0.18-0.105,0.258
		c-0.328,0.391-0.695,0.781-1.102,1.172c-0.43,0.398-0.848,0.762-1.254,1.09c-0.086,0.062-0.18,0.094-0.281,0.094
		c-0.039,0-0.074-0.004-0.105-0.012c-0.141-0.031-0.254-0.109-0.34-0.234c-0.07-0.094-0.105-0.195-0.105-0.305
		c0-0.031,0-0.059,0-0.082c0.023-0.148,0.094-0.266,0.211-0.352c0.359-0.258,0.719-0.555,1.078-0.891
		C295.684,62.711,295.965,62.406,296.199,62.109z M304.285,65.637c0.148,0,0.275,0.053,0.381,0.158s0.158,0.23,0.158,0.375
		s-0.053,0.27-0.158,0.375s-0.232,0.158-0.381,0.158h-1.102c-0.062,0-0.094,0.031-0.094,0.094v4.523c0,0.328-0.043,0.578-0.129,0.75
		s-0.242,0.301-0.469,0.387c-0.273,0.102-0.832,0.16-1.676,0.176c0,0.008-0.004,0.012-0.012,0.012c-0.164,0-0.309-0.055-0.434-0.164
		c-0.133-0.102-0.227-0.238-0.281-0.41c-0.016-0.047-0.023-0.09-0.023-0.129c0-0.086,0.023-0.164,0.07-0.234
		c0.078-0.109,0.18-0.164,0.305-0.164h0.012c0.266,0.008,0.492,0.012,0.68,0.012c0.219,0,0.395-0.004,0.527-0.012
		c0.195,0,0.293-0.078,0.293-0.234v-4.512c0-0.062-0.027-0.094-0.082-0.094h-3.164c-0.148,0-0.275-0.053-0.381-0.158
		s-0.158-0.23-0.158-0.375s0.053-0.27,0.158-0.375s0.232-0.158,0.381-0.158H304.285z M303.957,62.355
		c0.141,0,0.264,0.053,0.369,0.158s0.158,0.23,0.158,0.375s-0.053,0.27-0.158,0.375s-0.229,0.158-0.369,0.158h-4.758
		c-0.141,0-0.264-0.053-0.369-0.158s-0.158-0.23-0.158-0.375s0.053-0.27,0.158-0.375s0.229-0.158,0.369-0.158H303.957z"/>
	<path fill="#808080" d="M322.566,68.297c0.117,0.109,0.184,0.242,0.199,0.398c0.008,0.023,0.012,0.047,0.012,0.07
		c0,0.133-0.043,0.254-0.129,0.363c-0.086,0.117-0.203,0.18-0.352,0.188h-0.012c-0.141,0-0.258-0.055-0.352-0.164
		c-0.258-0.281-0.547-0.586-0.867-0.914c-0.016-0.016-0.031-0.02-0.047-0.012s-0.023,0.02-0.023,0.035v4.137
		c0,0.148-0.053,0.277-0.158,0.387s-0.234,0.164-0.387,0.164s-0.283-0.055-0.393-0.164s-0.164-0.238-0.164-0.387v-3.785
		c0-0.023-0.008-0.037-0.023-0.041s-0.027-0.002-0.035,0.006c-0.367,0.352-0.746,0.668-1.137,0.949
		c-0.086,0.062-0.176,0.094-0.27,0.094c-0.047,0-0.094-0.008-0.141-0.023c-0.141-0.039-0.246-0.129-0.316-0.27
		c-0.055-0.094-0.082-0.191-0.082-0.293c0-0.047,0.008-0.098,0.023-0.152c0.031-0.148,0.113-0.27,0.246-0.363
		c0.594-0.398,1.158-0.887,1.693-1.465s0.979-1.184,1.33-1.816c0.008-0.016,0.008-0.033,0-0.053s-0.023-0.029-0.047-0.029h-2.543
		c-0.141,0-0.262-0.049-0.363-0.146s-0.152-0.217-0.152-0.357s0.051-0.262,0.152-0.363s0.223-0.152,0.363-0.152h1.219
		c0.055,0,0.082-0.027,0.082-0.082v-1.57c0-0.156,0.055-0.287,0.164-0.393s0.24-0.158,0.393-0.158s0.281,0.053,0.387,0.158
		s0.158,0.236,0.158,0.393v1.57c0,0.055,0.031,0.082,0.094,0.082h0.715c0.016,0,0.031,0,0.047,0
		c0.109-0.023,0.215-0.004,0.316,0.059l0.164,0.117c0.094,0.062,0.156,0.146,0.188,0.252s0.023,0.209-0.023,0.311
		c-0.32,0.719-0.75,1.438-1.289,2.156c-0.031,0.047-0.027,0.09,0.012,0.129C321.586,67.457,322.035,67.836,322.566,68.297z
		 M326.328,71.426c0,0.055,0.027,0.082,0.082,0.082h2.039c0.156,0,0.287,0.055,0.393,0.164S329,71.912,329,72.064
		s-0.053,0.281-0.158,0.387s-0.236,0.158-0.393,0.158h-5.613c-0.156,0-0.287-0.053-0.393-0.158s-0.158-0.234-0.158-0.387
		s0.053-0.283,0.158-0.393s0.236-0.164,0.393-0.164h2.262c0.062,0,0.094-0.027,0.094-0.082v-4.535c0-0.055-0.031-0.082-0.094-0.082
		h-1.793c-0.148,0-0.275-0.053-0.381-0.158s-0.158-0.234-0.158-0.387s0.053-0.281,0.158-0.387s0.232-0.158,0.381-0.158h1.793
		c0.062,0,0.094-0.027,0.094-0.082v-3.035c0-0.156,0.055-0.291,0.164-0.404s0.242-0.17,0.398-0.17s0.291,0.057,0.404,0.17
		s0.17,0.248,0.17,0.404v3.035c0,0.055,0.027,0.082,0.082,0.082h1.805c0.148,0,0.275,0.053,0.381,0.158s0.158,0.234,0.158,0.387
		s-0.053,0.281-0.158,0.387s-0.232,0.158-0.381,0.158h-1.805c-0.055,0-0.082,0.027-0.082,0.082V71.426z"/>
</g>
</svg>
